stdClass Object
(
    [request] => stdClass Object
        (
            [params] => stdClass Object
                (
                )

        )

    [data] => Array
        (
            [0] => stdClass Object
                (
                    [name] => TMH_test
                    [timezone] => Asia/Tokyo
                    [timezone_switch_at] => 2013-05-21T15:00:00Z
                    [id] => ftr8ac
                    [created_at] => 2012-11-27T11:00:39Z
                    [salt] => 9524b881a51c23b9726ab6ee7c3f74fa
                    [updated_at] => 2015-11-19T04:38:13Z
                    [approval_status] => ACCEPTED
                    [deleted] => 
                )

            [1] => stdClass Object
                (
                    [name] => TMH-TechLabDev
                    [timezone] => Asia/Bangkok
                    [timezone_switch_at] => 2015-11-16T17:00:00Z
                    [id] => 18ce547sm1q
                    [created_at] => 2015-11-16T10:30:28Z
                    [salt] => 8f390ea3c7d993b231ba3b913c3f8cbc
                    [updated_at] => 2015-11-19T08:21:02Z
                    [approval_status] => ACCEPTED
                    [deleted] => 
                )

        )

    [data_type] => account
    [total_count] => 2
    [next_cursor] => 
)
