stdClass Object
(
    [data_type] => targeting_criterion
    [data] => Array
        (
            [0] => stdClass Object
                (
                    [name] => Alcatel OneTouch Idol 3
                    [manufacturer] => Alcatel
                    [platform] => Android
                    [targeting_value] => 4n
                    [targeting_type] => DEVICE
                )

            [1] => stdClass Object
                (
                    [name] => Amazon Kindle Fire
                    [manufacturer] => Amazon
                    [platform] => Android
                    [targeting_value] => 1l
                    [targeting_type] => DEVICE
                )

            [2] => stdClass Object
                (
                    [name] => Amazon Kindle Fire 10"
                    [manufacturer] => Amazon
                    [platform] => Android
                    [targeting_value] => 1k
                    [targeting_type] => DEVICE
                )

            [3] => stdClass Object
                (
                    [name] => Amazon Kindle Fire HD 7"
                    [manufacturer] => Amazon
                    [platform] => Android
                    [targeting_value] => d
                    [targeting_type] => DEVICE
                )

            [4] => stdClass Object
                (
                    [name] => Amazon Kindle Fire HD 8.9"
                    [manufacturer] => Amazon
                    [platform] => Android
                    [targeting_value] => 1m
                    [targeting_type] => DEVICE
                )

            [5] => stdClass Object
                (
                    [name] => Fujitsu Arrows V
                    [manufacturer] => Fujitsu
                    [platform] => Android
                    [targeting_value] => 30
                    [targeting_type] => DEVICE
                )

            [6] => stdClass Object
                (
                    [name] => Fujitsu Arrows X
                    [manufacturer] => Fujitsu
                    [platform] => Android
                    [targeting_value] => 2x
                    [targeting_type] => DEVICE
                )

            [7] => stdClass Object
                (
                    [name] => Google Droid Bionic
                    [manufacturer] => Google
                    [platform] => Android
                    [targeting_value] => 1h
                    [targeting_type] => DEVICE
                )

            [8] => stdClass Object
                (
                    [name] => Google Droid Razr
                    [manufacturer] => Google
                    [platform] => Android
                    [targeting_value] => 2i
                    [targeting_type] => DEVICE
                )

            [9] => stdClass Object
                (
                    [name] => Google Galaxy Nexus
                    [manufacturer] => Google
                    [platform] => Android
                    [targeting_value] => 11
                    [targeting_type] => DEVICE
                )

            [10] => stdClass Object
                (
                    [name] => Google Nexus 4
                    [manufacturer] => Google
                    [platform] => Android
                    [targeting_value] => j
                    [targeting_type] => DEVICE
                )

            [11] => stdClass Object
                (
                    [name] => Google Nexus 5
                    [manufacturer] => Google
                    [platform] => Android
                    [targeting_value] => 2k
                    [targeting_type] => DEVICE
                )

            [12] => stdClass Object
                (
                    [name] => Google Nexus 6
                    [manufacturer] => Google
                    [platform] => Android
                    [targeting_value] => 4k
                    [targeting_type] => DEVICE
                )

            [13] => stdClass Object
                (
                    [name] => Google Nexus 7
                    [manufacturer] => Google
                    [platform] => Android
                    [targeting_value] => b
                    [targeting_type] => DEVICE
                )

            [14] => stdClass Object
                (
                    [name] => HTC Butterfly
                    [manufacturer] => HTC
                    [platform] => Android
                    [targeting_value] => 2l
                    [targeting_type] => DEVICE
                )

            [15] => stdClass Object
                (
                    [name] => HTC Desire
                    [manufacturer] => HTC
                    [platform] => Android
                    [targeting_value] => 41
                    [targeting_type] => DEVICE
                )

            [16] => stdClass Object
                (
                    [name] => HTC Desire 500
                    [manufacturer] => HTC
                    [platform] => Android
                    [targeting_value] => 3g
                    [targeting_type] => DEVICE
                )

            [17] => stdClass Object
                (
                    [name] => HTC Desire C
                    [manufacturer] => HTC
                    [platform] => Android
                    [targeting_value] => 1c
                    [targeting_type] => DEVICE
                )

            [18] => stdClass Object
                (
                    [name] => HTC Desire HD
                    [manufacturer] => HTC
                    [platform] => Android
                    [targeting_value] => 1a
                    [targeting_type] => DEVICE
                )

            [19] => stdClass Object
                (
                    [name] => HTC Desire S
                    [manufacturer] => HTC
                    [platform] => Android
                    [targeting_value] => 10
                    [targeting_type] => DEVICE
                )

            [20] => stdClass Object
                (
                    [name] => HTC Desire X
                    [manufacturer] => HTC
                    [platform] => Android
                    [targeting_value] => 2h
                    [targeting_type] => DEVICE
                )

            [21] => stdClass Object
                (
                    [name] => HTC Evo
                    [manufacturer] => HTC
                    [platform] => Android
                    [targeting_value] => 28
                    [targeting_type] => DEVICE
                )

            [22] => stdClass Object
                (
                    [name] => HTC Evo 4G
                    [manufacturer] => HTC
                    [platform] => Android
                    [targeting_value] => 1e
                    [targeting_type] => DEVICE
                )

            [23] => stdClass Object
                (
                    [name] => HTC J
                    [manufacturer] => HTC
                    [platform] => Android
                    [targeting_value] => 2p
                    [targeting_type] => DEVICE
                )

            [24] => stdClass Object
                (
                    [name] => HTC J Butterfly
                    [manufacturer] => HTC
                    [platform] => Android
                    [targeting_value] => 1b
                    [targeting_type] => DEVICE
                )

            [25] => stdClass Object
                (
                    [name] => HTC M9
                    [manufacturer] => HTC
                    [platform] => Android
                    [targeting_value] => 4l
                    [targeting_type] => DEVICE
                )

            [26] => stdClass Object
                (
                    [name] => HTC One
                    [manufacturer] => HTC
                    [platform] => Android
                    [targeting_value] => a
                    [targeting_type] => DEVICE
                )

            [27] => stdClass Object
                (
                    [name] => HTC One M8
                    [manufacturer] => HTC
                    [platform] => Android
                    [targeting_value] => 34
                    [targeting_type] => DEVICE
                )

            [28] => stdClass Object
                (
                    [name] => HTC One M8s
                    [manufacturer] => HTC
                    [platform] => Android
                    [targeting_value] => 4m
                    [targeting_type] => DEVICE
                )

            [29] => stdClass Object
                (
                    [name] => HTC One Mini
                    [manufacturer] => HTC
                    [platform] => Android
                    [targeting_value] => 2o
                    [targeting_type] => DEVICE
                )

            [30] => stdClass Object
                (
                    [name] => HTC One S
                    [manufacturer] => HTC
                    [platform] => Android
                    [targeting_value] => y
                    [targeting_type] => DEVICE
                )

            [31] => stdClass Object
                (
                    [name] => HTC One V
                    [manufacturer] => HTC
                    [platform] => Android
                    [targeting_value] => 1d
                    [targeting_type] => DEVICE
                )

            [32] => stdClass Object
                (
                    [name] => HTC One X
                    [manufacturer] => HTC
                    [platform] => Android
                    [targeting_value] => c
                    [targeting_type] => DEVICE
                )

            [33] => stdClass Object
                (
                    [name] => HTC One X+
                    [manufacturer] => HTC
                    [platform] => Android
                    [targeting_value] => 2q
                    [targeting_type] => DEVICE
                )

            [34] => stdClass Object
                (
                    [name] => HTC Sensation
                    [manufacturer] => HTC
                    [platform] => Android
                    [targeting_value] => 2m
                    [targeting_type] => DEVICE
                )

            [35] => stdClass Object
                (
                    [name] => Huawei Ascend
                    [manufacturer] => Huawei
                    [platform] => Android
                    [targeting_value] => 32
                    [targeting_type] => DEVICE
                )

            [36] => stdClass Object
                (
                    [name] => iPad
                    [manufacturer] => Apple
                    [platform] => iOS
                    [targeting_value] => 1v
                    [targeting_type] => DEVICE
                )

            [37] => stdClass Object
                (
                    [name] => iPad 2
                    [manufacturer] => Apple
                    [platform] => iOS
                    [targeting_value] => 1w
                    [targeting_type] => DEVICE
                )

            [38] => stdClass Object
                (
                    [name] => iPad 3
                    [manufacturer] => Apple
                    [platform] => iOS
                    [targeting_value] => 1x
                    [targeting_type] => DEVICE
                )

            [39] => stdClass Object
                (
                    [name] => iPad 4
                    [manufacturer] => Apple
                    [platform] => iOS
                    [targeting_value] => 1y
                    [targeting_type] => DEVICE
                )

            [40] => stdClass Object
                (
                    [name] => iPad Air
                    [manufacturer] => Apple
                    [platform] => iOS
                    [targeting_value] => 20
                    [targeting_type] => DEVICE
                )

            [41] => stdClass Object
                (
                    [name] => iPad Air 2
                    [manufacturer] => Apple
                    [platform] => iOS
                    [targeting_value] => 48
                    [targeting_type] => DEVICE
                )

            [42] => stdClass Object
                (
                    [name] => iPad mini
                    [manufacturer] => Apple
                    [platform] => iOS
                    [targeting_value] => 1z
                    [targeting_type] => DEVICE
                )

            [43] => stdClass Object
                (
                    [name] => iPad mini 2
                    [manufacturer] => Apple
                    [platform] => iOS
                    [targeting_value] => 49
                    [targeting_type] => DEVICE
                )

            [44] => stdClass Object
                (
                    [name] => iPad mini 3
                    [manufacturer] => Apple
                    [platform] => iOS
                    [targeting_value] => 4a
                    [targeting_type] => DEVICE
                )

            [45] => stdClass Object
                (
                    [name] => iPhone 3GS
                    [manufacturer] => Apple
                    [platform] => iOS
                    [targeting_value] => 1q
                    [targeting_type] => DEVICE
                )

            [46] => stdClass Object
                (
                    [name] => iPhone 4
                    [manufacturer] => Apple
                    [platform] => iOS
                    [targeting_value] => 1r
                    [targeting_type] => DEVICE
                )

            [47] => stdClass Object
                (
                    [name] => iPhone 4S
                    [manufacturer] => Apple
                    [platform] => iOS
                    [targeting_value] => 1s
                    [targeting_type] => DEVICE
                )

            [48] => stdClass Object
                (
                    [name] => iPhone 5
                    [manufacturer] => Apple
                    [platform] => iOS
                    [targeting_value] => 1t
                    [targeting_type] => DEVICE
                )

            [49] => stdClass Object
                (
                    [name] => iPhone 5C
                    [manufacturer] => Apple
                    [platform] => iOS
                    [targeting_value] => 22
                    [targeting_type] => DEVICE
                )

            [50] => stdClass Object
                (
                    [name] => iPhone 5S
                    [manufacturer] => Apple
                    [platform] => iOS
                    [targeting_value] => 21
                    [targeting_type] => DEVICE
                )

            [51] => stdClass Object
                (
                    [name] => iPhone 6
                    [manufacturer] => Apple
                    [platform] => iOS
                    [targeting_value] => 46
                    [targeting_type] => DEVICE
                )

            [52] => stdClass Object
                (
                    [name] => iPhone 6 Plus
                    [manufacturer] => Apple
                    [platform] => iOS
                    [targeting_value] => 47
                    [targeting_type] => DEVICE
                )

            [53] => stdClass Object
                (
                    [name] => iPhone 6S
                    [manufacturer] => Apple
                    [platform] => iOS
                    [targeting_value] => 4q
                    [targeting_type] => DEVICE
                )

            [54] => stdClass Object
                (
                    [name] => iPhone 6S Plus
                    [manufacturer] => Apple
                    [platform] => iOS
                    [targeting_value] => 4r
                    [targeting_type] => DEVICE
                )

            [55] => stdClass Object
                (
                    [name] => iPod Touch
                    [manufacturer] => Apple
                    [platform] => iOS
                    [targeting_value] => 1u
                    [targeting_type] => DEVICE
                )

            [56] => stdClass Object
                (
                    [name] => LG G2
                    [manufacturer] => LG
                    [platform] => Android
                    [targeting_value] => 3h
                    [targeting_type] => DEVICE
                )

            [57] => stdClass Object
                (
                    [name] => LG G4
                    [manufacturer] => LG
                    [platform] => Android
                    [targeting_value] => 4j
                    [targeting_type] => DEVICE
                )

            [58] => stdClass Object
                (
                    [name] => LG Motion 4G
                    [manufacturer] => LG
                    [platform] => Android
                    [targeting_value] => p
                    [targeting_type] => DEVICE
                )

            [59] => stdClass Object
                (
                    [name] => LG Optimus G Pro
                    [manufacturer] => LG
                    [platform] => Android
                    [targeting_value] => 3l
                    [targeting_type] => DEVICE
                )

            [60] => stdClass Object
                (
                    [name] => LG Optimus L3
                    [manufacturer] => LG
                    [platform] => Android
                    [targeting_value] => r
                    [targeting_type] => DEVICE
                )

            [61] => stdClass Object
                (
                    [name] => LG Optimus L5
                    [manufacturer] => LG
                    [platform] => Android
                    [targeting_value] => s
                    [targeting_type] => DEVICE
                )

            [62] => stdClass Object
                (
                    [name] => LG Optimus L5 II
                    [manufacturer] => LG
                    [platform] => Android
                    [targeting_value] => 3t
                    [targeting_type] => DEVICE
                )

            [63] => stdClass Object
                (
                    [name] => LG Optimus L7
                    [manufacturer] => LG
                    [platform] => Android
                    [targeting_value] => 1f
                    [targeting_type] => DEVICE
                )

            [64] => stdClass Object
                (
                    [name] => LG Optimus L7 II
                    [manufacturer] => LG
                    [platform] => Android
                    [targeting_value] => 2u
                    [targeting_type] => DEVICE
                )

            [65] => stdClass Object
                (
                    [name] => LG Optimus L9
                    [manufacturer] => LG
                    [platform] => Android
                    [targeting_value] => 1i
                    [targeting_type] => DEVICE
                )

            [66] => stdClass Object
                (
                    [name] => Motorola Droid Razr HD
                    [manufacturer] => Google
                    [platform] => Android
                    [targeting_value] => z
                    [targeting_type] => DEVICE
                )

            [67] => stdClass Object
                (
                    [name] => Motorola Droid Razr M
                    [manufacturer] => Google
                    [platform] => Android
                    [targeting_value] => m
                    [targeting_type] => DEVICE
                )

            [68] => stdClass Object
                (
                    [name] => Motorola Droid Ultra
                    [manufacturer] => Google
                    [platform] => Android
                    [targeting_value] => 3c
                    [targeting_type] => DEVICE
                )

            [69] => stdClass Object
                (
                    [name] => Motorola Moto G
                    [manufacturer] => Google
                    [platform] => Android
                    [targeting_value] => 33
                    [targeting_type] => DEVICE
                )

            [70] => stdClass Object
                (
                    [name] => Motorola Moto X
                    [manufacturer] => Google
                    [platform] => Android
                    [targeting_value] => 39
                    [targeting_type] => DEVICE
                )

            [71] => stdClass Object
                (
                    [name] => Motorola Motoluxe
                    [manufacturer] => Google
                    [platform] => Android
                    [targeting_value] => 1j
                    [targeting_type] => DEVICE
                )

            [72] => stdClass Object
                (
                    [name] => Motorola RAZR D3
                    [manufacturer] => Google
                    [platform] => Android
                    [targeting_value] => 3o
                    [targeting_type] => DEVICE
                )

            [73] => stdClass Object
                (
                    [name] => Motorola Razr i
                    [manufacturer] => Google
                    [platform] => Android
                    [targeting_value] => 1n
                    [targeting_type] => DEVICE
                )

            [74] => stdClass Object
                (
                    [name] => OnePlus 1
                    [manufacturer] => OnePlus
                    [platform] => Android
                    [targeting_value] => 4o
                    [targeting_type] => DEVICE
                )

            [75] => stdClass Object
                (
                    [name] => OnePlus 2
                    [manufacturer] => OnePlus
                    [platform] => Android
                    [targeting_value] => 4p
                    [targeting_type] => DEVICE
                )

            [76] => stdClass Object
                (
                    [name] => Samsung Ace
                    [manufacturer] => Samsung
                    [platform] => Android
                    [targeting_value] => 23
                    [targeting_type] => DEVICE
                )

            [77] => stdClass Object
                (
                    [name] => Samsung Galaxy A3
                    [manufacturer] => Samsung
                    [platform] => Android
                    [targeting_value] => 4d
                    [targeting_type] => DEVICE
                )

            [78] => stdClass Object
                (
                    [name] => Samsung Galaxy A5
                    [manufacturer] => Samsung
                    [platform] => Android
                    [targeting_value] => 4e
                    [targeting_type] => DEVICE
                )

            [79] => stdClass Object
                (
                    [name] => Samsung Galaxy Ace
                    [manufacturer] => Samsung
                    [platform] => Android
                    [targeting_value] => 7
                    [targeting_type] => DEVICE
                )

            [80] => stdClass Object
                (
                    [name] => Samsung Galaxy Ace 2
                    [manufacturer] => Samsung
                    [platform] => Android
                    [targeting_value] => 9
                    [targeting_type] => DEVICE
                )

            [81] => stdClass Object
                (
                    [name] => Samsung Galaxy Ace 3
                    [manufacturer] => Samsung
                    [platform] => Android
                    [targeting_value] => 3i
                    [targeting_type] => DEVICE
                )

            [82] => stdClass Object
                (
                    [name] => Samsung Galaxy Ace II X
                    [manufacturer] => Samsung
                    [platform] => Android
                    [targeting_value] => 3j
                    [targeting_type] => DEVICE
                )

            [83] => stdClass Object
                (
                    [name] => Samsung Galaxy Ace Plus
                    [manufacturer] => Samsung
                    [platform] => Android
                    [targeting_value] => t
                    [targeting_type] => DEVICE
                )

            [84] => stdClass Object
                (
                    [name] => Samsung Galaxy Core
                    [manufacturer] => Samsung
                    [platform] => Android
                    [targeting_value] => 2w
                    [targeting_type] => DEVICE
                )

            [85] => stdClass Object
                (
                    [name] => Samsung Galaxy Exhibit
                    [manufacturer] => Samsung
                    [platform] => Android
                    [targeting_value] => 3v
                    [targeting_type] => DEVICE
                )

            [86] => stdClass Object
                (
                    [name] => Samsung Galaxy Grand
                    [manufacturer] => Samsung
                    [platform] => Android
                    [targeting_value] => i
                    [targeting_type] => DEVICE
                )

            [87] => stdClass Object
                (
                    [name] => Samsung Galaxy Grand 2
                    [manufacturer] => Samsung
                    [platform] => Android
                    [targeting_value] => 3q
                    [targeting_type] => DEVICE
                )

            [88] => stdClass Object
                (
                    [name] => Samsung Galaxy Grand Duos
                    [manufacturer] => Samsung
                    [platform] => Android
                    [targeting_value] => 26
                    [targeting_type] => DEVICE
                )

            [89] => stdClass Object
                (
                    [name] => Samsung Galaxy Grand Prime
                    [manufacturer] => Samsung
                    [platform] => Android
                    [targeting_value] => 4i
                    [targeting_type] => DEVICE
                )

            [90] => stdClass Object
                (
                    [name] => Samsung Galaxy Grand Quattro
                    [manufacturer] => Samsung
                    [platform] => Android
                    [targeting_value] => 3d
                    [targeting_type] => DEVICE
                )

            [91] => stdClass Object
                (
                    [name] => Samsung Galaxy Mega
                    [manufacturer] => Samsung
                    [platform] => Android
                    [targeting_value] => 3f
                    [targeting_type] => DEVICE
                )

            [92] => stdClass Object
                (
                    [name] => Samsung Galaxy Mini
                    [manufacturer] => Samsung
                    [platform] => Android
                    [targeting_value] => l
                    [targeting_type] => DEVICE
                )

            [93] => stdClass Object
                (
                    [name] => Samsung Galaxy Mini 2
                    [manufacturer] => Samsung
                    [platform] => Android
                    [targeting_value] => x
                    [targeting_type] => DEVICE
                )

            [94] => stdClass Object
                (
                    [name] => Samsung Galaxy Nexus
                    [manufacturer] => Samsung
                    [platform] => Android
                    [targeting_value] => 25
                    [targeting_type] => DEVICE
                )

            [95] => stdClass Object
                (
                    [name] => Samsung Galaxy Note
                    [manufacturer] => Samsung
                    [platform] => Android
                    [targeting_value] => k
                    [targeting_type] => DEVICE
                )

            [96] => stdClass Object
                (
                    [name] => Samsung Galaxy Note 4
                    [manufacturer] => Samsung
                    [platform] => Android
                    [targeting_value] => 4f
                    [targeting_type] => DEVICE
                )

            [97] => stdClass Object
                (
                    [name] => Samsung Galaxy Note 5
                    [manufacturer] => Samsung
                    [platform] => Android
                    [targeting_value] => 4g
                    [targeting_type] => DEVICE
                )

            [98] => stdClass Object
                (
                    [name] => Samsung Galaxy Note II
                    [manufacturer] => Samsung
                    [platform] => Android
                    [targeting_value] => 2
                    [targeting_type] => DEVICE
                )

            [99] => stdClass Object
                (
                    [name] => Samsung Galaxy Note III
                    [manufacturer] => Samsung
                    [platform] => Android
                    [targeting_value] => 2g
                    [targeting_type] => DEVICE
                )

            [100] => stdClass Object
                (
                    [name] => Samsung Galaxy Pocket
                    [manufacturer] => Samsung
                    [platform] => Android
                    [targeting_value] => w
                    [targeting_type] => DEVICE
                )

            [101] => stdClass Object
                (
                    [name] => Samsung Galaxy S
                    [manufacturer] => Samsung
                    [platform] => Android
                    [targeting_value] => 1g
                    [targeting_type] => DEVICE
                )

            [102] => stdClass Object
                (
                    [name] => Samsung Galaxy S Advance
                    [manufacturer] => Samsung
                    [platform] => Android
                    [targeting_value] => 8
                    [targeting_type] => DEVICE
                )

            [103] => stdClass Object
                (
                    [name] => Samsung Galaxy S Duos
                    [manufacturer] => Samsung
                    [platform] => Android
                    [targeting_value] => 15
                    [targeting_type] => DEVICE
                )

            [104] => stdClass Object
                (
                    [name] => Samsung Galaxy S II
                    [manufacturer] => Samsung
                    [platform] => Android
                    [targeting_value] => 3
                    [targeting_type] => DEVICE
                )

            [105] => stdClass Object
                (
                    [name] => Samsung Galaxy S III
                    [manufacturer] => Samsung
                    [platform] => Android
                    [targeting_value] => 1
                    [targeting_type] => DEVICE
                )

            [106] => stdClass Object
                (
                    [name] => Samsung Galaxy S III Alpha
                    [manufacturer] => Samsung
                    [platform] => Android
                    [targeting_value] => 18
                    [targeting_type] => DEVICE
                )

            [107] => stdClass Object
                (
                    [name] => Samsung Galaxy S III mini
                    [manufacturer] => Samsung
                    [platform] => Android
                    [targeting_value] => 4
                    [targeting_type] => DEVICE
                )

            [108] => stdClass Object
                (
                    [name] => Samsung Galaxy S Plus
                    [manufacturer] => Samsung
                    [platform] => Android
                    [targeting_value] => h
                    [targeting_type] => DEVICE
                )

            [109] => stdClass Object
                (
                    [name] => Samsung Galaxy S2 Duos
                    [manufacturer] => Samsung
                    [platform] => Android
                    [targeting_value] => 3y
                    [targeting_type] => DEVICE
                )

            [110] => stdClass Object
                (
                    [name] => Samsung Galaxy S2 Plus
                    [manufacturer] => Samsung
                    [platform] => Android
                    [targeting_value] => 40
                    [targeting_type] => DEVICE
                )

            [111] => stdClass Object
                (
                    [name] => Samsung Galaxy S4
                    [manufacturer] => Samsung
                    [platform] => Android
                    [targeting_value] => 2r
                    [targeting_type] => DEVICE
                )

            [112] => stdClass Object
                (
                    [name] => Samsung Galaxy S4 Mini
                    [manufacturer] => Samsung
                    [platform] => Android
                    [targeting_value] => 2n
                    [targeting_type] => DEVICE
                )

            [113] => stdClass Object
                (
                    [name] => Samsung Galaxy S4 Mini Duos
                    [manufacturer] => Samsung
                    [platform] => Android
                    [targeting_value] => 36
                    [targeting_type] => DEVICE
                )

            [114] => stdClass Object
                (
                    [name] => Samsung Galaxy S5
                    [manufacturer] => Samsung
                    [platform] => Android
                    [targeting_value] => 35
                    [targeting_type] => DEVICE
                )

            [115] => stdClass Object
                (
                    [name] => Samsung Galaxy S6
                    [manufacturer] => Samsung
                    [platform] => Android
                    [targeting_value] => 4b
                    [targeting_type] => DEVICE
                )

            [116] => stdClass Object
                (
                    [name] => Samsung Galaxy S6 Edge
                    [manufacturer] => Samsung
                    [platform] => Android
                    [targeting_value] => 4c
                    [targeting_type] => DEVICE
                )

            [117] => stdClass Object
                (
                    [name] => Samsung Galaxy S6 Edge+
                    [manufacturer] => Samsung
                    [platform] => Android
                    [targeting_value] => 4h
                    [targeting_type] => DEVICE
                )

            [118] => stdClass Object
                (
                    [name] => Samsung Galaxy Tab
                    [manufacturer] => Samsung
                    [platform] => Android
                    [targeting_value] => v
                    [targeting_type] => DEVICE
                )

            [119] => stdClass Object
                (
                    [name] => Samsung Galaxy Tab 2
                    [manufacturer] => Samsung
                    [platform] => Android
                    [targeting_value] => e
                    [targeting_type] => DEVICE
                )

            [120] => stdClass Object
                (
                    [name] => Samsung Galaxy Trend
                    [manufacturer] => Samsung
                    [platform] => Android
                    [targeting_value] => 38
                    [targeting_type] => DEVICE
                )

            [121] => stdClass Object
                (
                    [name] => Samsung Galaxy Trend Plus
                    [manufacturer] => Samsung
                    [platform] => Android
                    [targeting_value] => 42
                    [targeting_type] => DEVICE
                )

            [122] => stdClass Object
                (
                    [name] => Samsung Galaxy W
                    [manufacturer] => Samsung
                    [platform] => Android
                    [targeting_value] => u
                    [targeting_type] => DEVICE
                )

            [123] => stdClass Object
                (
                    [name] => Samsung Galaxy Win Duos
                    [manufacturer] => Samsung
                    [platform] => Android
                    [targeting_value] => 3k
                    [targeting_type] => DEVICE
                )

            [124] => stdClass Object
                (
                    [name] => Samsung Galaxy Y
                    [manufacturer] => Samsung
                    [platform] => Android
                    [targeting_value] => 6
                    [targeting_type] => DEVICE
                )

            [125] => stdClass Object
                (
                    [name] => Sharp Aquos EX
                    [manufacturer] => Sharp
                    [platform] => Android
                    [targeting_value] => 2z
                    [targeting_type] => DEVICE
                )

            [126] => stdClass Object
                (
                    [name] => Sharp Aquos Zeta
                    [manufacturer] => Sharp
                    [platform] => Android
                    [targeting_value] => 3s
                    [targeting_type] => DEVICE
                )

            [127] => stdClass Object
                (
                    [name] => Sony Xperia A
                    [manufacturer] => Sony
                    [platform] => Android
                    [targeting_value] => n
                    [targeting_type] => DEVICE
                )

            [128] => stdClass Object
                (
                    [name] => Sony Xperia Acro
                    [manufacturer] => Sony
                    [platform] => Android
                    [targeting_value] => 19
                    [targeting_type] => DEVICE
                )

            [129] => stdClass Object
                (
                    [name] => Sony Xperia Acro HD
                    [manufacturer] => Sony
                    [platform] => Android
                    [targeting_value] => o
                    [targeting_type] => DEVICE
                )

            [130] => stdClass Object
                (
                    [name] => Sony Xperia AX
                    [manufacturer] => Sony
                    [platform] => Android
                    [targeting_value] => 14
                    [targeting_type] => DEVICE
                )

            [131] => stdClass Object
                (
                    [name] => Sony Xperia J
                    [manufacturer] => Sony
                    [platform] => Android
                    [targeting_value] => 2y
                    [targeting_type] => DEVICE
                )

            [132] => stdClass Object
                (
                    [name] => Sony Xperia L
                    [manufacturer] => Sony
                    [platform] => Android
                    [targeting_value] => 3e
                    [targeting_type] => DEVICE
                )

            [133] => stdClass Object
                (
                    [name] => Sony Xperia M
                    [manufacturer] => Sony
                    [platform] => Android
                    [targeting_value] => 45
                    [targeting_type] => DEVICE
                )

            [134] => stdClass Object
                (
                    [name] => Sony Xperia miro
                    [manufacturer] => Sony
                    [platform] => Android
                    [targeting_value] => 13
                    [targeting_type] => DEVICE
                )

            [135] => stdClass Object
                (
                    [name] => Sony Xperia P
                    [manufacturer] => Sony
                    [platform] => Android
                    [targeting_value] => 24
                    [targeting_type] => DEVICE
                )

            [136] => stdClass Object
                (
                    [name] => Sony Xperia S
                    [manufacturer] => Sony
                    [platform] => Android
                    [targeting_value] => q
                    [targeting_type] => DEVICE
                )

            [137] => stdClass Object
                (
                    [name] => Sony Xperia SP
                    [manufacturer] => Sony
                    [platform] => Android
                    [targeting_value] => 2s
                    [targeting_type] => DEVICE
                )

            [138] => stdClass Object
                (
                    [name] => Sony Xperia Tipo
                    [manufacturer] => Sony
                    [platform] => Android
                    [targeting_value] => 16
                    [targeting_type] => DEVICE
                )

            [139] => stdClass Object
                (
                    [name] => Sony Xperia U
                    [manufacturer] => Sony
                    [platform] => Android
                    [targeting_value] => f
                    [targeting_type] => DEVICE
                )

            [140] => stdClass Object
                (
                    [name] => Sony Xperia UL
                    [manufacturer] => Sony
                    [platform] => Android
                    [targeting_value] => 3n
                    [targeting_type] => DEVICE
                )

            [141] => stdClass Object
                (
                    [name] => Sony Xperia VL
                    [manufacturer] => Sony
                    [platform] => Android
                    [targeting_value] => 31
                    [targeting_type] => DEVICE
                )

            [142] => stdClass Object
                (
                    [name] => Sony Xperia Z
                    [manufacturer] => Sony
                    [platform] => Android
                    [targeting_value] => g
                    [targeting_type] => DEVICE
                )

            [143] => stdClass Object
                (
                    [name] => Sony Xperia Z1
                    [manufacturer] => Sony
                    [platform] => Android
                    [targeting_value] => 2t
                    [targeting_type] => DEVICE
                )

        )

    [request] => stdClass Object
        (
            [params] => stdClass Object
                (
                )

        )

)
